%YAML 1.1
%TAG !u! tag:unity3d.com,2011:
--- !u!74 &7400000
AnimationClip:
  m_ObjectHideFlags: 0
  m_CorrespondingSourceObject: {fileID: 0}
  m_PrefabInstance: {fileID: 0}
  m_PrefabAsset: {fileID: 0}
  m_Name: running
  serializedVersion: 6
  m_Legacy: 0
  m_Compressed: 0
  m_UseHighQualityCurve: 1
  m_RotationCurves: []
  m_CompressedRotationCurves: []
  m_EulerCurves: []
  m_PositionCurves:
  - curve:
      serializedVersion: 2
      m_Curve:
      - serializedVersion: 3
        time: 0
        value: {x: -9.36, y: -3.6, z: 0}
        inSlope: {x: 0, y: 0, z: 0}
        outSlope: {x: 0, y: 0, z: 0}
        tangentMode: 0
        weightedMode: 0
        inWeight: {x: 0.33333334, y: 0.33333334, z: 0.33333334}
        outWeight: {x: 0.33333334, y: 0.33333334, z: 0.33333334}
      - serializedVersion: 3
        time: 1.9833333
        value: {x: 0.33000088, y: -3.6, z: 0}
        inSlope: {x: 0.015934069, y: 0, z: 0}
        outSlope: {x: 0.015934069, y: 0, z: 0}
        tangentMode: 0
        weightedMode: 0
        inWeight: {x: 0.33333334, y: 0.33333334, z: 0.33333334}
        outWeight: {x: 0.33333334, y: 0.33333334, z: 0.33333334}
      - serializedVersion: 3
        time: 2
        value: {x: 0.33796823, y: -3.6, z: 0}
        inSlope: {x: 0.09105549, y: 0, z: 0}
        outSlope: {x: 0.09105549, y: 0, z: 0}
        tangentMode: 0
        weightedMode: 0
        inWeight: {x: 0.33333334, y: 0.33333334, z: 0.33333334}
        outWeight: {x: 0.33333334, y: 0.33333334, z: 0.33333334}
      - serializedVersion: 3
        time: 2.3333333
        value: {x: 0.48, y: -3.6, z: 0}
        inSlope: {x: 0, y: 0, z: 0}
        outSlope: {x: 0, y: 0, z: 0}
        tangentMode: 0
        weightedMode: 0
        inWeight: {x: 0.33333334, y: 0.33333334, z: 0.33333334}
        outWeight: {x: 0.33333334, y: 0.33333334, z: 0.33333334}
      - serializedVersion: 3
        time: 2.5
        value: {x: 0.48, y: -3.6, z: 0}
        inSlope: {x: 0, y: 0, z: 0}
        outSlope: {x: 0, y: 0, z: 0}
        tangentMode: 0
        weightedMode: 0
        inWeight: {x: 0.33333334, y: 0.33333334, z: 0.33333334}
        outWeight: {x: 0.33333334, y: 0.33333334, z: 0.33333334}
      - serializedVersion: 3
        time: 2.6666667
        value: {x: 1.57, y: -2.53, z: 0}
        inSlope: {x: 8.520001, y: 0, z: 0}
        outSlope: {x: 8.520001, y: 0, z: 0}
        tangentMode: 0
        weightedMode: 0
        inWeight: {x: 0.33333334, y: 0.33333334, z: 0.33333334}
        outWeight: {x: 0.33333334, y: 0.33333334, z: 0.33333334}
      - serializedVersion: 3
        time: 2.8333333
        value: {x: 3.32, y: -3.55, z: 0}
        inSlope: {x: 0, y: 0, z: 0}
        outSlope: {x: 0, y: 0, z: 0}
        tangentMode: 0
        weightedMode: 0
        inWeight: {x: 0.33333334, y: 0.33333334, z: 0.33333334}
        outWeight: {x: 0.33333334, y: 0.33333334, z: 0.33333334}
      - serializedVersion: 3
        time: 3.5
        value: {x: 3.32, y: -3.55, z: 0}
        inSlope: {x: 0, y: 0, z: 0}
        outSlope: {x: 0, y: 0, z: 0}
        tangentMode: 0
        weightedMode: 0
        inWeight: {x: 0.33333334, y: 0.33333334, z: 0.33333334}
        outWeight: {x: 0.33333334, y: 0.33333334, z: 0.33333334}
      - serializedVersion: 3
        time: 5.5
        value: {x: 9.97, y: -3.55, z: 0}
        inSlope: {x: 0, y: 0, z: 0}
        outSlope: {x: 0, y: 0, z: 0}
        tangentMode: 0
        weightedMode: 0
        inWeight: {x: 0.33333334, y: 0.33333334, z: 0.33333334}
        outWeight: {x: 0.33333334, y: 0.33333334, z: 0.33333334}
      m_PreInfinity: 2
      m_PostInfinity: 2
      m_RotationOrder: 4
    path: 
  m_ScaleCurves: []
  m_FloatCurves: []
  m_PPtrCurves:
  - curve:
    - time: 0
      value: {fileID: 21300000, guid: 28ee7be254d2ee6468ba73b06feba98b, type: 3}
    - time: 0.16666667
      value: {fileID: 21300000, guid: 0960b7dc1940be946aa3d6510bfce6ce, type: 3}
    - time: 0.33333334
      value: {fileID: 21300000, guid: 82ca6949c5cf6b541b49b2bbe524f3c5, type: 3}
    - time: 0.5
      value: {fileID: 21300000, guid: db47c10d43eb36e44a43e810e7079a71, type: 3}
    - time: 0.6666667
      value: {fileID: 21300000, guid: 28ee7be254d2ee6468ba73b06feba98b, type: 3}
    - time: 0.8333333
      value: {fileID: 21300000, guid: 28ee7be254d2ee6468ba73b06feba98b, type: 3}
    - time: 1
      value: {fileID: 21300000, guid: 0960b7dc1940be946aa3d6510bfce6ce, type: 3}
    - time: 1.1666666
      value: {fileID: 21300000, guid: 82ca6949c5cf6b541b49b2bbe524f3c5, type: 3}
    - time: 1.3333334
      value: {fileID: 21300000, guid: db47c10d43eb36e44a43e810e7079a71, type: 3}
    - time: 1.5
      value: {fileID: 21300000, guid: 28ee7be254d2ee6468ba73b06feba98b, type: 3}
    - time: 1.6666666
      value: {fileID: 21300000, guid: 28ee7be254d2ee6468ba73b06feba98b, type: 3}
    - time: 1.8333334
      value: {fileID: 21300000, guid: 0960b7dc1940be946aa3d6510bfce6ce, type: 3}
    - time: 2
      value: {fileID: 21300000, guid: 82ca6949c5cf6b541b49b2bbe524f3c5, type: 3}
    - time: 2.1666667
      value: {fileID: 21300000, guid: e370db5f2ffeaa54fbced139b2b0804a, type: 3}
    - time: 2.7
      value: {fileID: 21300000, guid: df4338ee809d3a34686de38be955036d, type: 3}
    - time: 3
      value: {fileID: 21300000, guid: 195fd3e2630792248bcd4a3b04ad54aa, type: 3}
    - time: 3.1666667
      value: {fileID: 21300000, guid: fbb1dc64f8687ec4bbd16565c42e22b2, type: 3}
    - time: 3.3333333
      value: {fileID: 21300000, guid: fbb1dc64f8687ec4bbd16565c42e22b2, type: 3}
    - time: 3.5
      value: {fileID: 21300000, guid: fbb1dc64f8687ec4bbd16565c42e22b2, type: 3}
    - time: 3.6666667
      value: {fileID: 21300000, guid: 0960b7dc1940be946aa3d6510bfce6ce, type: 3}
    - time: 3.8333333
      value: {fileID: 21300000, guid: 82ca6949c5cf6b541b49b2bbe524f3c5, type: 3}
    - time: 4
      value: {fileID: 21300000, guid: db47c10d43eb36e44a43e810e7079a71, type: 3}
    - time: 4.1666665
      value: {fileID: 21300000, guid: 28ee7be254d2ee6468ba73b06feba98b, type: 3}
    - time: 4.3333335
      value: {fileID: 21300000, guid: 0960b7dc1940be946aa3d6510bfce6ce, type: 3}
    - time: 4.5
      value: {fileID: 21300000, guid: 82ca6949c5cf6b541b49b2bbe524f3c5, type: 3}
    - time: 4.6666665
      value: {fileID: 21300000, guid: db47c10d43eb36e44a43e810e7079a71, type: 3}
    - time: 4.8333335
      value: {fileID: 21300000, guid: 28ee7be254d2ee6468ba73b06feba98b, type: 3}
    - time: 5
      value: {fileID: 21300000, guid: 0960b7dc1940be946aa3d6510bfce6ce, type: 3}
    - time: 5.1666665
      value: {fileID: 21300000, guid: 82ca6949c5cf6b541b49b2bbe524f3c5, type: 3}
    - time: 5.3333335
      value: {fileID: 21300000, guid: db47c10d43eb36e44a43e810e7079a71, type: 3}
    - time: 5.5
      value: {fileID: 21300000, guid: 28ee7be254d2ee6468ba73b06feba98b, type: 3}
    attribute: m_Sprite
    path: 
    classID: 212
    script: {fileID: 0}
  m_SampleRate: 60
  m_WrapMode: 0
  m_Bounds:
    m_Center: {x: 0, y: 0, z: 0}
    m_Extent: {x: 0, y: 0, z: 0}
  m_ClipBindingConstant:
    genericBindings:
    - serializedVersion: 2
      path: 0
      attribute: 1
      script: {fileID: 0}
      typeID: 4
      customType: 0
      isPPtrCurve: 0
    - serializedVersion: 2
      path: 0
      attribute: 0
      script: {fileID: 0}
      typeID: 212
      customType: 23
      isPPtrCurve: 1
    pptrCurveMapping:
    - {fileID: 21300000, guid: 28ee7be254d2ee6468ba73b06feba98b, type: 3}
    - {fileID: 21300000, guid: 0960b7dc1940be946aa3d6510bfce6ce, type: 3}
    - {fileID: 21300000, guid: 82ca6949c5cf6b541b49b2bbe524f3c5, type: 3}
    - {fileID: 21300000, guid: db47c10d43eb36e44a43e810e7079a71, type: 3}
    - {fileID: 21300000, guid: 28ee7be254d2ee6468ba73b06feba98b, type: 3}
    - {fileID: 21300000, guid: 28ee7be254d2ee6468ba73b06feba98b, type: 3}
    - {fileID: 21300000, guid: 0960b7dc1940be946aa3d6510bfce6ce, type: 3}
    - {fileID: 21300000, guid: 82ca6949c5cf6b541b49b2bbe524f3c5, type: 3}
    - {fileID: 21300000, guid: db47c10d43eb36e44a43e810e7079a71, type: 3}
    - {fileID: 21300000, guid: 28ee7be254d2ee6468ba73b06feba98b, type: 3}
    - {fileID: 21300000, guid: 28ee7be254d2ee6468ba73b06feba98b, type: 3}
    - {fileID: 21300000, guid: 0960b7dc1940be946aa3d6510bfce6ce, type: 3}
    - {fileID: 21300000, guid: 82ca6949c5cf6b541b49b2bbe524f3c5, type: 3}
    - {fileID: 21300000, guid: e370db5f2ffeaa54fbced139b2b0804a, type: 3}
    - {fileID: 21300000, guid: df4338ee809d3a34686de38be955036d, type: 3}
    - {fileID: 21300000, guid: 195fd3e2630792248bcd4a3b04ad54aa, type: 3}
    - {fileID: 21300000, guid: fbb1dc64f8687ec4bbd16565c42e22b2, type: 3}
    - {fileID: 21300000, guid: fbb1dc64f8687ec4bbd16565c42e22b2, type: 3}
    - {fileID: 21300000, guid: fbb1dc64f8687ec4bbd16565c42e22b2, type: 3}
    - {fileID: 21300000, guid: 0960b7dc1940be946aa3d6510bfce6ce, type: 3}
    - {fileID: 21300000, guid: 82ca6949c5cf6b541b49b2bbe524f3c5, type: 3}
    - {fileID: 21300000, guid: db47c10d43eb36e44a43e810e7079a71, type: 3}
    - {fileID: 21300000, guid: 28ee7be254d2ee6468ba73b06feba98b, type: 3}
    - {fileID: 21300000, guid: 0960b7dc1940be946aa3d6510bfce6ce, type: 3}
    - {fileID: 21300000, guid: 82ca6949c5cf6b541b49b2bbe524f3c5, type: 3}
    - {fileID: 21300000, guid: db47c10d43eb36e44a43e810e7079a71, type: 3}
    - {fileID: 21300000, guid: 28ee7be254d2ee6468ba73b06feba98b, type: 3}
    - {fileID: 21300000, guid: 0960b7dc1940be946aa3d6510bfce6ce, type: 3}
    - {fileID: 21300000, guid: 82ca6949c5cf6b541b49b2bbe524f3c5, type: 3}
    - {fileID: 21300000, guid: db47c10d43eb36e44a43e810e7079a71, type: 3}
    - {fileID: 21300000, guid: 28ee7be254d2ee6468ba73b06feba98b, type: 3}
  m_AnimationClipSettings:
    serializedVersion: 2
    m_AdditiveReferencePoseClip: {fileID: 0}
    m_AdditiveReferencePoseTime: 0
    m_StartTime: 0
    m_StopTime: 5.516667
    m_OrientationOffsetY: 0
    m_Level: 0
    m_CycleOffset: 0
    m_HasAdditiveReferencePose: 0
    m_LoopTime: 1
    m_LoopBlend: 0
    m_LoopBlendOrientation: 0
    m_LoopBlendPositionY: 0
    m_LoopBlendPositionXZ: 0
    m_KeepOriginalOrientation: 0
    m_KeepOriginalPositionY: 1
    m_KeepOriginalPositionXZ: 0
    m_HeightFromFeet: 0
    m_Mirror: 0
  m_EditorCurves:
  - curve:
      serializedVersion: 2
      m_Curve:
      - serializedVersion: 3
        time: 0
        value: -9.36
        inSlope: 0
        outSlope: 0
        tangentMode: 136
        weightedMode: 0
        inWeight: 0.33333334
        outWeight: 0.33333334
      - serializedVersion: 3
        time: 1.9833333
        value: 0.33000088
        inSlope: 0.015934069
        outSlope: 0.015934069
        tangentMode: 136
        weightedMode: 0
        inWeight: 0.33333334
        outWeight: 0.33333334
      - serializedVersion: 3
        time: 2
        value: 0.33796823
        inSlope: 0.09105549
        outSlope: 0.09105549
        tangentMode: 136
        weightedMode: 0
        inWeight: 0.33333334
        outWeight: 0.33333334
      - serializedVersion: 3
        time: 2.3333333
        value: 0.48
        inSlope: 0
        outSlope: 0
        tangentMode: 136
        weightedMode: 0
        inWeight: 0.33333334
        outWeight: 0.33333334
      - serializedVersion: 3
        time: 2.5
        value: 0.48
        inSlope: 0
        outSlope: 0
        tangentMode: 136
        weightedMode: 0
        inWeight: 0.33333334
        outWeight: 0.33333334
      - serializedVersion: 3
        time: 2.6666667
        value: 1.57
        inSlope: 8.520001
        outSlope: 8.520001
        tangentMode: 136
        weightedMode: 0
        inWeight: 0.33333334
        outWeight: 0.33333334
      - serializedVersion: 3
        time: 2.8333333
        value: 3.32
        inSlope: 0
        outSlope: 0
        tangentMode: 136
        weightedMode: 0
        inWeight: 0.33333334
        outWeight: 0.33333334
      - serializedVersion: 3
        time: 3.5
        value: 3.32
        inSlope: 0
        outSlope: 0
        tangentMode: 136
        weightedMode: 0
        inWeight: 0.33333334
        outWeight: 0.33333334
      - serializedVersion: 3
        time: 5.5
        value: 9.97
        inSlope: 0
        outSlope: 0
        tangentMode: 136
        weightedMode: 0
        inWeight: 0.33333334
        outWeight: 0.33333334
      m_PreInfinity: 2
      m_PostInfinity: 2
      m_RotationOrder: 4
    attribute: m_LocalPosition.x
    path: 
    classID: 4
    script: {fileID: 0}
  - curve:
      serializedVersion: 2
      m_Curve:
      - serializedVersion: 3
        time: 0
        value: -3.6
        inSlope: 0
        outSlope: 0
        tangentMode: 136
        weightedMode: 0
        inWeight: 0.33333334
        outWeight: 0.33333334
      - serializedVersion: 3
        time: 2
        value: -3.6
        inSlope: 0
        outSlope: 0
        tangentMode: 136
        weightedMode: 0
        inWeight: 0.33333334
        outWeight: 0.33333334
      - serializedVersion: 3
        time: 2.5
        value: -3.6
        inSlope: 0
        outSlope: 0
        tangentMode: 136
        weightedMode: 0
        inWeight: 0.33333334
        outWeight: 0.33333334
      - serializedVersion: 3
        time: 2.6666667
        value: -2.53
        inSlope: 0
        outSlope: 0
        tangentMode: 136
        weightedMode: 0
        inWeight: 0.33333334
        outWeight: 0.33333334
      - serializedVersion: 3
        time: 2.8333333
        value: -3.55
        inSlope: 0
        outSlope: 0
        tangentMode: 136
        weightedMode: 0
        inWeight: 0.33333334
        outWeight: 0.33333334
      - serializedVersion: 3
        time: 3.5
        value: -3.55
        inSlope: 0
        outSlope: 0
        tangentMode: 136
        weightedMode: 0
        inWeight: 0.33333334
        outWeight: 0.33333334
      m_PreInfinity: 2
      m_PostInfinity: 2
      m_RotationOrder: 4
    attribute: m_LocalPosition.y
    path: 
    classID: 4
    script: {fileID: 0}
  - curve:
      serializedVersion: 2
      m_Curve:
      - serializedVersion: 3
        time: 0
        value: 0
        inSlope: 0
        outSlope: 0
        tangentMode: 136
        weightedMode: 0
        inWeight: 0.33333334
        outWeight: 0.33333334
      - serializedVersion: 3
        time: 2
        value: 0
        inSlope: 0
        outSlope: 0
        tangentMode: 136
        weightedMode: 0
        inWeight: 0.33333334
        outWeight: 0.33333334
      - serializedVersion: 3
        time: 3.5
        value: 0
        inSlope: 0
        outSlope: 0
        tangentMode: 136
        weightedMode: 0
        inWeight: 0.33333334
        outWeight: 0.33333334
      m_PreInfinity: 2
      m_PostInfinity: 2
      m_RotationOrder: 4
    attribute: m_LocalPosition.z
    path: 
    classID: 4
    script: {fileID: 0}
  m_EulerEditorCurves: []
  m_HasGenericRootTransform: 1
  m_HasMotionFloatCurves: 0
  m_Events: []
