Library\Bee\artifacts\mvdfrm\UnityEditor.TestRunner.ref.dll_193EC4CE382CBFB3.mvfrm
Library\Bee\artifacts\mvdfrm\UnityEditor.UI.ref.dll_4C98D3F7040CD4F5.mvfrm
Library\Bee\artifacts\mvdfrm\UnityEngine.TestRunner.ref.dll_E55D0F7C63F01D9E.mvfrm
Library\Bee\artifacts\mvdfrm\UnityEngine.UI.ref.dll_08FEAA520A2EFD60.mvfrm
Library\Bee\artifacts\mvdfrm\UnityEditor.Graphs.dll_F952DA66AA578E7A.mvfrm
Library\Bee\artifacts\mvdfrm\UnityEditor.CoreModule.dll_998CBFBD67234C48.mvfrm
Library\Bee\artifacts\mvdfrm\UnityEditor.DeviceSimulatorModule.dll_FAFB440D5CFAABF9.mvfrm
Library\Bee\artifacts\mvdfrm\UnityEditor.DiagnosticsModule.dll_AA34419D554DB807.mvfrm
Library\Bee\artifacts\mvdfrm\UnityEditor.dll_5D520399D7CCAACD.mvfrm
Library\Bee\artifacts\mvdfrm\UnityEditor.GraphViewModule.dll_BE38B720673DA0FE.mvfrm
Library\Bee\artifacts\mvdfrm\UnityEditor.PackageManagerUIModule.dll_ABDB945FBE0C6FA4.mvfrm
Library\Bee\artifacts\mvdfrm\UnityEditor.QuickSearchModule.dll_3543C2AAAE24B460.mvfrm
Library\Bee\artifacts\mvdfrm\UnityEditor.SceneTemplateModule.dll_316CC01517823EE1.mvfrm
Library\Bee\artifacts\mvdfrm\UnityEditor.TextCoreFontEngineModule.dll_DB21C78006002CC6.mvfrm
Library\Bee\artifacts\mvdfrm\UnityEditor.TextCoreTextEngineModule.dll_2309FDF19583E5E4.mvfrm
Library\Bee\artifacts\mvdfrm\UnityEditor.UIBuilderModule.dll_12C1643CD9F61A32.mvfrm
Library\Bee\artifacts\mvdfrm\UnityEditor.UIElementsModule.dll_ECEB5B173C5E8684.mvfrm
Library\Bee\artifacts\mvdfrm\UnityEditor.UIElementsSamplesModule.dll_78E1C9BECAE1EF29.mvfrm
Library\Bee\artifacts\mvdfrm\UnityEditor.UIServiceModule.dll_4BB3759FC32D6A4C.mvfrm
Library\Bee\artifacts\mvdfrm\UnityEditor.UnityConnectModule.dll_F0EB0C2F17061EFE.mvfrm
Library\Bee\artifacts\mvdfrm\UnityEngine.AccessibilityModule.dll_64122BAC17F8667E.mvfrm
Library\Bee\artifacts\mvdfrm\UnityEngine.AIModule.dll_D094D50F07AA619C.mvfrm
Library\Bee\artifacts\mvdfrm\UnityEngine.AndroidJNIModule.dll_6B3443EA857DF55A.mvfrm
Library\Bee\artifacts\mvdfrm\UnityEngine.AnimationModule.dll_8CBE3349419A75A4.mvfrm
Library\Bee\artifacts\mvdfrm\UnityEngine.ARModule.dll_8A079A1264C7C065.mvfrm
Library\Bee\artifacts\mvdfrm\UnityEngine.AssetBundleModule.dll_792CF59C108B6952.mvfrm
Library\Bee\artifacts\mvdfrm\UnityEngine.AudioModule.dll_D4013DDB0297CD96.mvfrm
Library\Bee\artifacts\mvdfrm\UnityEngine.ClothModule.dll_3AE99AD5DCB4AC7A.mvfrm
Library\Bee\artifacts\mvdfrm\UnityEngine.ClusterInputModule.dll_70878144C88DF1C4.mvfrm
Library\Bee\artifacts\mvdfrm\UnityEngine.ClusterRendererModule.dll_00A8067ECCB5B97D.mvfrm
Library\Bee\artifacts\mvdfrm\UnityEngine.CoreModule.dll_BCAD93100F28B773.mvfrm
Library\Bee\artifacts\mvdfrm\UnityEngine.CrashReportingModule.dll_9DBADDC5BF60F0EB.mvfrm
Library\Bee\artifacts\mvdfrm\UnityEngine.DirectorModule.dll_E0BC2683D9D5CA50.mvfrm
Library\Bee\artifacts\mvdfrm\UnityEngine.dll_8FF64A72364037B2.mvfrm
Library\Bee\artifacts\mvdfrm\UnityEngine.DSPGraphModule.dll_E60D87ED4C369B71.mvfrm
Library\Bee\artifacts\mvdfrm\UnityEngine.GameCenterModule.dll_95818E054BBEE64B.mvfrm
Library\Bee\artifacts\mvdfrm\UnityEngine.GIModule.dll_68D11E1CA35949B6.mvfrm
Library\Bee\artifacts\mvdfrm\UnityEngine.GridModule.dll_9A1EAEFE277D4D6A.mvfrm
Library\Bee\artifacts\mvdfrm\UnityEngine.HotReloadModule.dll_0E06F14F1CCD9126.mvfrm
Library\Bee\artifacts\mvdfrm\UnityEngine.ImageConversionModule.dll_6C9A042F4EDA7171.mvfrm
Library\Bee\artifacts\mvdfrm\UnityEngine.IMGUIModule.dll_0C60DD41C8C96177.mvfrm
Library\Bee\artifacts\mvdfrm\UnityEngine.InputLegacyModule.dll_0A7210BAA87D1F43.mvfrm
Library\Bee\artifacts\mvdfrm\UnityEngine.InputModule.dll_3A77058B78CFF23A.mvfrm
Library\Bee\artifacts\mvdfrm\UnityEngine.JSONSerializeModule.dll_C429B4E81733C708.mvfrm
Library\Bee\artifacts\mvdfrm\UnityEngine.LocalizationModule.dll_AED44B976009E4BD.mvfrm
Library\Bee\artifacts\mvdfrm\UnityEngine.NVIDIAModule.dll_BF4844E00F56A83F.mvfrm
Library\Bee\artifacts\mvdfrm\UnityEngine.ParticleSystemModule.dll_F0CD27122D727C79.mvfrm
Library\Bee\artifacts\mvdfrm\UnityEngine.PerformanceReportingModule.dll_C5F4F8173E1E7F32.mvfrm
Library\Bee\artifacts\mvdfrm\UnityEngine.Physics2DModule.dll_D9642339E2976D39.mvfrm
Library\Bee\artifacts\mvdfrm\UnityEngine.PhysicsModule.dll_A8C59AE57378A727.mvfrm
Library\Bee\artifacts\mvdfrm\UnityEngine.ProfilerModule.dll_13025FBA732F515D.mvfrm
Library\Bee\artifacts\mvdfrm\UnityEngine.RuntimeInitializeOnLoadManagerInitializerModule.dll_973C61EA5CD8D002.mvfrm
Library\Bee\artifacts\mvdfrm\UnityEngine.ScreenCaptureModule.dll_DE11626D2B9FF36A.mvfrm
Library\Bee\artifacts\mvdfrm\UnityEngine.SharedInternalsModule.dll_F0AB4304C6086CC1.mvfrm
Library\Bee\artifacts\mvdfrm\UnityEngine.SpriteMaskModule.dll_7EAE00956D2E7BC5.mvfrm
Library\Bee\artifacts\mvdfrm\UnityEngine.SpriteShapeModule.dll_928E22F6C62DA15C.mvfrm
Library\Bee\artifacts\mvdfrm\UnityEngine.StreamingModule.dll_4153209991222CE2.mvfrm
Library\Bee\artifacts\mvdfrm\UnityEngine.SubstanceModule.dll_1DFE34E2DC752AF0.mvfrm
Library\Bee\artifacts\mvdfrm\UnityEngine.SubsystemsModule.dll_E95B66F73B7663D8.mvfrm
Library\Bee\artifacts\mvdfrm\UnityEngine.TerrainModule.dll_C30C16544936F015.mvfrm
Library\Bee\artifacts\mvdfrm\UnityEngine.TerrainPhysicsModule.dll_F147CFE546B57706.mvfrm
Library\Bee\artifacts\mvdfrm\UnityEngine.TextCoreFontEngineModule.dll_598142D318FDEB91.mvfrm
Library\Bee\artifacts\mvdfrm\UnityEngine.TextCoreTextEngineModule.dll_A1697944A881A4AF.mvfrm
Library\Bee\artifacts\mvdfrm\UnityEngine.TextRenderingModule.dll_0750D477E2D7735F.mvfrm
Library\Bee\artifacts\mvdfrm\UnityEngine.TilemapModule.dll_62087DD560F3D11E.mvfrm
Library\Bee\artifacts\mvdfrm\UnityEngine.TLSModule.dll_592FC4855356563B.mvfrm
Library\Bee\artifacts\mvdfrm\UnityEngine.UIElementsModule.dll_ED99C85F3EA29FCF.mvfrm
Library\Bee\artifacts\mvdfrm\UnityEngine.UIElementsNativeModule.dll_F65548F52F84DFC6.mvfrm
Library\Bee\artifacts\mvdfrm\UnityEngine.UIModule.dll_CC08733C63F16748.mvfrm
Library\Bee\artifacts\mvdfrm\UnityEngine.UmbraModule.dll_4ED5E9F38FBE7909.mvfrm
Library\Bee\artifacts\mvdfrm\UnityEngine.UNETModule.dll_4F53DAF95C37ACEC.mvfrm
Library\Bee\artifacts\mvdfrm\UnityEngine.UnityAnalyticsModule.dll_106C97DBD999CE75.mvfrm
Library\Bee\artifacts\mvdfrm\UnityEngine.UnityConnectModule.dll_DE4A903E118E1FA9.mvfrm
Library\Bee\artifacts\mvdfrm\UnityEngine.UnityCurlModule.dll_BFDAD47AB1AE6791.mvfrm
Library\Bee\artifacts\mvdfrm\UnityEngine.UnityTestProtocolModule.dll_34A47FB124DD447F.mvfrm
Library\Bee\artifacts\mvdfrm\UnityEngine.UnityWebRequestAssetBundleModule.dll_8A6FB73CF42C4106.mvfrm
Library\Bee\artifacts\mvdfrm\UnityEngine.UnityWebRequestAudioModule.dll_3DF14BF5C48949CA.mvfrm
Library\Bee\artifacts\mvdfrm\UnityEngine.UnityWebRequestModule.dll_7E390BD959CF0BF0.mvfrm
Library\Bee\artifacts\mvdfrm\UnityEngine.UnityWebRequestTextureModule.dll_1710D39B96795CDF.mvfrm
Library\Bee\artifacts\mvdfrm\UnityEngine.UnityWebRequestWWWModule.dll_6C2BBEA09841611B.mvfrm
Library\Bee\artifacts\mvdfrm\UnityEngine.VehiclesModule.dll_587F200353FF99EB.mvfrm
Library\Bee\artifacts\mvdfrm\UnityEngine.VFXModule.dll_DA0E5CF429C3BFA8.mvfrm
Library\Bee\artifacts\mvdfrm\UnityEngine.VideoModule.dll_F90AC245C529E93B.mvfrm
Library\Bee\artifacts\mvdfrm\UnityEngine.VirtualTexturingModule.dll_1AE1FD6408336051.mvfrm
Library\Bee\artifacts\mvdfrm\UnityEngine.VRModule.dll_1EDA99C205ABECC0.mvfrm
Library\Bee\artifacts\mvdfrm\UnityEngine.WindModule.dll_32FC6E38A05F35DC.mvfrm
Library\Bee\artifacts\mvdfrm\UnityEngine.XRModule.dll_51995CC68EE63A1E.mvfrm
Library\Bee\artifacts\mvdfrm\UnityEditor.WindowsStandalone.Extensions.dll_079887D1EB8AF1D8.mvfrm
Library\Bee\artifacts\mvdfrm\Unity.Burst.Cecil.dll_6BF49D207B6550C2.mvfrm
Library\Bee\artifacts\mvdfrm\Unity.Burst.Cecil.Mdb.dll_FFB988CDDF0DB47F.mvfrm
Library\Bee\artifacts\mvdfrm\Unity.Burst.Cecil.Pdb.dll_170C013D5DC2B602.mvfrm
Library\Bee\artifacts\mvdfrm\Unity.Burst.Cecil.Rocks.dll_9C73091231AEEA62.mvfrm
Library\Bee\artifacts\mvdfrm\Unity.Burst.Unsafe.dll_1A51CD95FD144731.mvfrm
Library\Bee\artifacts\mvdfrm\Unity.Plastic.Antlr3.Runtime.dll_E3D196E5C41D6291.mvfrm
Library\Bee\artifacts\mvdfrm\Unity.Plastic.Newtonsoft.Json.dll_5C1DF348590F5514.mvfrm
Library\Bee\artifacts\mvdfrm\Unity.VisualScripting.IonicZip.dll_F111435A2C5CF75B.mvfrm
Library\Bee\artifacts\mvdfrm\Unity.VisualScripting.YamlDotNet.dll_8A39409C4D8AEA91.mvfrm
Library\Bee\artifacts\mvdfrm\Unity.VisualScripting.TextureAssets.dll_215769F00E584889.mvfrm
Library\Bee\artifacts\mvdfrm\Unity.VisualScripting.Antlr3.Runtime.dll_3BA6677D7E53FAB0.mvfrm